…
accel_df
## # A tibble: 50,400 x 6
##     week day_id day    weekday_vs_weekend minute activity_count
##    <dbl>  <dbl> <chr>  <chr>               <dbl>          <dbl>
##  1     1      1 Friday weekday                 1           88.4
##  2     1      1 Friday weekday                 2           82.2
##  3     1      1 Friday weekday                 3           64.4
##  4     1      1 Friday weekday                 4           70.0
##  5     1      1 Friday weekday                 5           75.0
##  6     1      1 Friday weekday                 6           66.3
##  7     1      1 Friday weekday                 7           53.8
##  8     1      1 Friday weekday                 8           47.8
##  9     1      1 Friday weekday                 9           55.5
## 10     1      1 Friday weekday                10           43.0
## # ... with 50,390 more rows
```
…
